# Blender v2.79 (sub 4) OBJ File: ''
# www.blender.org
o Plane
v -0.500000 -0.500000 -0.000000
v 0.500000 -0.500000 -0.000000
v -0.500000 0.500000 0.000000
v 0.500000 0.500000 0.000000
vn 0.0000 -0.0000 1.0000
s off
f 2//1 3//1 1//1
f 2//1 4//1 3//1
